{
  "errors": [
    "Entry module not found: Error: Can't resolve './src' in '/Users/irezende/Desktop/workspace/igoroctaviano/blog'\nresolve './src' in '/Users/irezende/Desktop/workspace/igoroctaviano/blog'\n  using description file: /Users/irezende/Desktop/workspace/igoroctaviano/blog/package.json (relative path: .)\n    Field 'browser' doesn't contain a valid alias configuration\n    using description file: /Users/irezende/Desktop/workspace/igoroctaviano/blog/package.json (relative path: ./src)\n      no extension\n        Field 'browser' doesn't contain a valid alias configuration\n        /Users/irezende/Desktop/workspace/igoroctaviano/blog/src is not a file\n      .wasm\n        Field 'browser' doesn't contain a valid alias configuration\n        /Users/irezende/Desktop/workspace/igoroctaviano/blog/src.wasm doesn't exist\n      .mjs\n        Field 'browser' doesn't contain a valid alias configuration\n        /Users/irezende/Desktop/workspace/igoroctaviano/blog/src.mjs doesn't exist\n      .js\n        Field 'browser' doesn't contain a valid alias configuration\n        /Users/irezende/Desktop/workspace/igoroctaviano/blog/src.js doesn't exist\n      .json\n        Field 'browser' doesn't contain a valid alias configuration\n        /Users/irezende/Desktop/workspace/igoroctaviano/blog/src.json doesn't exist\n      as directory\n        existing directory\n          using path: /Users/irezende/Desktop/workspace/igoroctaviano/blog/src/index\n            using description file: /Users/irezende/Desktop/workspace/igoroctaviano/blog/package.json (relative path: ./src/index)\n              no extension\n                Field 'browser' doesn't contain a valid alias configuration\n                /Users/irezende/Desktop/workspace/igoroctaviano/blog/src/index doesn't exist\n              .wasm\n                Field 'browser' doesn't contain a valid alias configuration\n                /Users/irezende/Desktop/workspace/igoroctaviano/blog/src/index.wasm doesn't exist\n              .mjs\n                Field 'browser' doesn't contain a valid alias configuration\n                /Users/irezende/Desktop/workspace/igoroctaviano/blog/src/index.mjs doesn't exist\n              .js\n                Field 'browser' doesn't contain a valid alias configuration\n                /Users/irezende/Desktop/workspace/igoroctaviano/blog/src/index.js doesn't exist\n              .json\n                Field 'browser' doesn't contain a valid alias configuration\n                /Users/irezende/Desktop/workspace/igoroctaviano/blog/src/index.json doesn't exist"
  ],
  "warnings": [
    "configuration\nThe 'mode' option has not been set, webpack will fallback to 'production' for this value. Set 'mode' option to 'development' or 'production' to enable defaults for each environment.\nYou can also set it to 'none' to disable any default behavior. Learn more: https://webpack.js.org/concepts/mode/"
  ],
  "version": "4.16.0",
  "hash": "22b2cd649b7c930ed685",
  "time": 182,
  "builtAt": 1543920468466,
  "publicPath": "",
  "outputPath": "/Users/irezende/Desktop/workspace/igoroctaviano/blog/dist",
  "assetsByChunkName": {},
  "assets": [],
  "filteredAssets": 0,
  "entrypoints": {},
  "namedChunkGroups": {},
  "chunks": [],
  "modules": [],
  "filteredModules": 0,
  "children": []
}
