// Jest Snapshot v1, https://goo.gl/fbAQLP

exports[`Bio renders correctly 1`] = `
<div
  style={
    Object {
      "display": "flex",
      "marginBottom": "4.375rem",
    }
  }
>
  <img
    alt="Igor Octaviano"
    src="https://www.gravatar.com/avatar/b47ee8272ee81c9cb93ec8446873ff85"
    style={
      Object {
        "height": "3.5rem",
        "marginBottom": 0,
        "marginRight": "0.875rem",
        "width": "3.5rem",
      }
    }
  />
  <p>
    Written by 
    <strong>
      Igor Octaviano
    </strong>
     
    who lives and works in Belo Horizonte building useful things.
     
    <a
      href="https://twitter.com/igoroctaviano"
    >
      You should follow him on Twitter
    </a>
  </p>
</div>
`;
